version: api.keploy.io/v1beta1
kind: Http
name: test-1
spec:
    metadata: {}
    req:
        method: GET
        proto_major: 1
        proto_minor: 1
        url: http://localhost:8000/get
        header:
            Accept: '*/*'
            Host: localhost:8000
            User-Agent: curl/7.81.0
        body: ""
        timestamp: 2024-02-27T13:11:28.533846832+05:30
    resp:
        status_code: 200
        header:
            Connection: keep-alive
            Content-Length: "996"
            Content-Type: application/json; charset=utf-8
            Date: Tue, 27 Feb 2024 07:41:30 GMT
            Etag: W/"3e4-2RLXvr5wTg9YQ6aH95CkYoFNuO8"
            Keep-Alive: timeout=5
            X-Powered-By: Express
        body: '{"page":1,"per_page":6,"total":12,"total_pages":2,"data":[{"id":1,"email":"george.bluth@reqres.in","first_name":"George","last_name":"Bluth","avatar":"https://reqres.in/img/faces/1-image.jpg"},{"id":2,"email":"janet.weaver@reqres.in","first_name":"Janet","last_name":"Weaver","avatar":"https://reqres.in/img/faces/2-image.jpg"},{"id":3,"email":"emma.wong@reqres.in","first_name":"Emma","last_name":"Wong","avatar":"https://reqres.in/img/faces/3-image.jpg"},{"id":4,"email":"eve.holt@reqres.in","first_name":"Eve","last_name":"Holt","avatar":"https://reqres.in/img/faces/4-image.jpg"},{"id":5,"email":"charles.morris@reqres.in","first_name":"Charles","last_name":"Morris","avatar":"https://reqres.in/img/faces/5-image.jpg"},{"id":6,"email":"tracey.ramos@reqres.in","first_name":"Tracey","last_name":"Ramos","avatar":"https://reqres.in/img/faces/6-image.jpg"}],"support":{"url":"https://reqres.in/#support-heading","text":"To keep ReqRes free, contributions towards server costs are appreciated!"}}'
        status_message: OK
        proto_major: 0
        proto_minor: 0
        timestamp: 2024-02-27T13:11:32.739092987+05:30
    objects: []
    assertions:
        noise:
            body.total: []
            header.Date: []
    created: 1709019692
curl: |
    curl --request GET \
      --url http://localhost:8000/get \
      --header 'Host: localhost:8000' \
      --header 'User-Agent: curl/7.81.0' \
      --header 'Accept: */*' \
