version: api.keploy.io/v1beta1
name: report-1
status: PASSED
success: 1
failure: 0
total: 1
tests:
    - kind: Http
      name: report-1
      status: PASSED
      started: 1709640266
      completed: 1709640267
      test_case_path: /Users/ritikjain/Desktop/keploy-workspace/samples-typescript/express-mongoose/keploy/test-set-5
      mock_path: /Users/ritikjain/Desktop/keploy-workspace/samples-typescript/express-mongoose/keploy/test-set-5/mocks.yaml
      test_case_id: test-1
      req:
        method: GET
        proto_major: 1
        proto_minor: 1
        url: http://localhost:8000/get
        header:
            Accept: '*/*'
            Host: localhost:8000
            User-Agent: curl/7.85.0
        body: ""
        timestamp: 2024-03-05T17:30:26.366738338+05:30
      resp:
        status_code: 200
        header:
            Connection: keep-alive
            Content-Length: "996"
            Content-Type: application/json; charset=utf-8
            Date: Tue, 05 Mar 2024 12:00:28 GMT
            Etag: W/"3e4-2RLXvr5wTg9YQ6aH95CkYoFNuO8"
            Keep-Alive: timeout=5
            X-Powered-By: Express
        body: '{"page":1,"per_page":6,"total":12,"total_pages":2,"data":[{"id":1,"email":"george.bluth@reqres.in","first_name":"George","last_name":"Bluth","avatar":"https://reqres.in/img/faces/1-image.jpg"},{"id":2,"email":"janet.weaver@reqres.in","first_name":"Janet","last_name":"Weaver","avatar":"https://reqres.in/img/faces/2-image.jpg"},{"id":3,"email":"emma.wong@reqres.in","first_name":"Emma","last_name":"Wong","avatar":"https://reqres.in/img/faces/3-image.jpg"},{"id":4,"email":"eve.holt@reqres.in","first_name":"Eve","last_name":"Holt","avatar":"https://reqres.in/img/faces/4-image.jpg"},{"id":5,"email":"charles.morris@reqres.in","first_name":"Charles","last_name":"Morris","avatar":"https://reqres.in/img/faces/5-image.jpg"},{"id":6,"email":"tracey.ramos@reqres.in","first_name":"Tracey","last_name":"Ramos","avatar":"https://reqres.in/img/faces/6-image.jpg"}],"support":{"url":"https://reqres.in/#support-heading","text":"To keep ReqRes free, contributions towards server costs are appreciated!"}}'
        status_message: OK
        proto_major: 0
        proto_minor: 0
        timestamp: 2024-03-05T17:30:30.625096642+05:30
      noise:
        body.total: []
        header.Date: []
      result:
        status_code:
            normal: true
            expected: 200
            actual: 200
        headers_result:
            - normal: true
              expected:
                key: Keep-Alive
                value:
                    - timeout=5
              actual:
                key: Keep-Alive
                value:
                    - timeout=5
            - normal: true
              expected:
                key: X-Powered-By
                value:
                    - Express
              actual:
                key: X-Powered-By
                value:
                    - Express
            - normal: true
              expected:
                key: Connection
                value:
                    - keep-alive
              actual:
                key: Connection
                value:
                    - keep-alive
            - normal: true
              expected:
                key: Content-Length
                value:
                    - "996"
              actual:
                key: Content-Length
                value:
                    - "996"
            - normal: true
              expected:
                key: Content-Type
                value:
                    - application/json; charset=utf-8
              actual:
                key: Content-Type
                value:
                    - application/json; charset=utf-8
            - normal: true
              expected:
                key: Date
                value:
                    - Tue, 05 Mar 2024 12:00:28 GMT
              actual:
                key: Date
                value:
                    - Tue, 05 Mar 2024 12:04:27 GMT
            - normal: true
              expected:
                key: Etag
                value:
                    - W/"3e4-2RLXvr5wTg9YQ6aH95CkYoFNuO8"
              actual:
                key: Etag
                value:
                    - W/"3e4-2RLXvr5wTg9YQ6aH95CkYoFNuO8"
        body_result:
            - normal: true
              expected: '{"page":1,"per_page":6,"total":12,"total_pages":2,"data":[{"id":1,"email":"george.bluth@reqres.in","first_name":"George","last_name":"Bluth","avatar":"https://reqres.in/img/faces/1-image.jpg"},{"id":2,"email":"janet.weaver@reqres.in","first_name":"Janet","last_name":"Weaver","avatar":"https://reqres.in/img/faces/2-image.jpg"},{"id":3,"email":"emma.wong@reqres.in","first_name":"Emma","last_name":"Wong","avatar":"https://reqres.in/img/faces/3-image.jpg"},{"id":4,"email":"eve.holt@reqres.in","first_name":"Eve","last_name":"Holt","avatar":"https://reqres.in/img/faces/4-image.jpg"},{"id":5,"email":"charles.morris@reqres.in","first_name":"Charles","last_name":"Morris","avatar":"https://reqres.in/img/faces/5-image.jpg"},{"id":6,"email":"tracey.ramos@reqres.in","first_name":"Tracey","last_name":"Ramos","avatar":"https://reqres.in/img/faces/6-image.jpg"}],"support":{"url":"https://reqres.in/#support-heading","text":"To keep ReqRes free, contributions towards server costs are appreciated!"}}'
              actual: '{"page":1,"per_page":6,"total":12,"total_pages":2,"data":[{"id":1,"email":"george.bluth@reqres.in","first_name":"George","last_name":"Bluth","avatar":"https://reqres.in/img/faces/1-image.jpg"},{"id":2,"email":"janet.weaver@reqres.in","first_name":"Janet","last_name":"Weaver","avatar":"https://reqres.in/img/faces/2-image.jpg"},{"id":3,"email":"emma.wong@reqres.in","first_name":"Emma","last_name":"Wong","avatar":"https://reqres.in/img/faces/3-image.jpg"},{"id":4,"email":"eve.holt@reqres.in","first_name":"Eve","last_name":"Holt","avatar":"https://reqres.in/img/faces/4-image.jpg"},{"id":5,"email":"charles.morris@reqres.in","first_name":"Charles","last_name":"Morris","avatar":"https://reqres.in/img/faces/5-image.jpg"},{"id":6,"email":"tracey.ramos@reqres.in","first_name":"Tracey","last_name":"Ramos","avatar":"https://reqres.in/img/faces/6-image.jpg"}],"support":{"url":"https://reqres.in/#support-heading","text":"To keep ReqRes free, contributions towards server costs are appreciated!"}}'
              type: JSON
        dep_result: []
test_set: test-set-5
